{
    "HOME": "முகப்பு",
    "ABOUTUS": "எங்களைப்பற்றி",
    "VACANCY": "ஆள்தேவை",
    "REGISTER": "பதிவுசெய்",
    "OURSERVICES": "சேவைகள்",
    "GALLERY": " புகைப்படம் ",
    "CONTACT": "தொடர்புக்கு",
    "HELP": "உதவி",
    "NEWEMPLOYEE":"புதிய ஊழியர்",
    "EXEMPLOYEE":"பழைய ஊழியர்",
    "EMPLOYER":"வாடிக்கையாளர்",
    "DASHBOARD": "முகப்பு",
    "RECENTVACANCIES": "சமீபத்திய ஆள்தேவைகள்",
    "SERVICENO": "இராணுவ சேவை எண்",
    "LOGIN":"உள் நுழைய",
    "ENTERSERVICENO": "இராணுவ சேவை எண் / டெக்ஸ்கோ எண்ணை உள்ளிடவும்",
    "TEXCONO":"டெக்ஸ்கோ எண்",
    "DISCIPLINE " :"கட்டுப்பாடு",
    "SERVICE " :"சேவை",
    "DEDICATION " :"அர்ப்பணிப்பு",
    "FEELSECURED": "Feel Secured...We Will Ensure.",
    "TEXCO": "தமிழ்நாடு முன்னாள் படைவீரர் கார்ப்பரேஷன் லிமிடெட்!"




}